com\mycompany\databaseproject\InsertDatabase.class
com\mycompany\databaseproject\UpdateDatabase.class
com\mycompany\databaseproject\DeleteDatabase.class
com\mycompany\databaseproject\SelectDatabase.class
com\mycompany\databaseproject\DatabaseProject.class
