C:\Chnk\DatabaseProject\src\main\java\com\mycompany\databaseproject\InsertDatabase.java
C:\Chnk\DatabaseProject\src\main\java\com\mycompany\databaseproject\SelectDatabase.java
C:\Chnk\DatabaseProject\src\main\java\com\mycompany\databaseproject\UpdateDatabase.java
C:\Chnk\DatabaseProject\src\main\java\com\mycompany\databaseproject\DatabaseProject.java
